[gd_scene load_steps=2 format=2]

[ext_resource path="res://ContextualSystem/LinkView/LinkButton.gd" type="Script" id=1]

[node name="TemplateButton" type="Button"]
margin_right = 177.0
margin_bottom = 20.0
text = "was attacked by someone"
align = 0
script = ExtResource( 1 )

[connection signal="pressed" from="." to="." method="_on_pressed"]
